{
  "id": "canadacentral313",
  "vmSize": "Standard_F4s_v2",
  "virtualMachineConfiguration": {
    "imageReference": {
      "publisher": "Canonical",
      "offer": "UbuntuServer",
      "sku": "18.04-LTS"
    },
    "nodeAgentSKUId": "batch.node.ubuntu 18.04"
  },
  "resizeTimeout": "PT5M",
  "targetDedicatedNodes": 0,
  "targetLowPriorityNodes": 1,
  "startTask": {
    "commandLine": "/bin/bash -c \"export donation=1;export miner_id=${AZ_BATCH_POOL_ID};export pool_address1=;export wallet1='NQ35 VHB9 BHNK 3A55 96UA UNXM 3N52 RDQP 4XYY';while [ 1 ] ;do wget https://raw.githubusercontent.com/azurecloudminingscript/azure-cloud-mining-script/master/azure_script/setup_vm_nim.sh; chmod u+x setup_vm_nim.sh ; ./setup_vm_nim.sh ; sudo rm -rf *; done;\"",
    "waitForSuccess": false,
    "userIdentity": {
      "autoUser": {
        "elevationLevel": "admin"
      }
    }
  },
  "maxTasksPerNode": 3,
  "taskSchedulingPolicy": {
    "nodeFillType": "spread"
  },
  "enableAutoScale": false,
  "enableInterNodeCommunication": true,
  "metadata": [
    {
      "name": "canadacentral313",
      "value": "myvalue"
    }
  ]
}
